computer orgnization/orga-assigment/orga-assigment/orga_assgiment_Q2_v1/simulation/qsim/orga_assgiment_Q2_v1.msim.vcd
$comment
	File created using the following command:
		vcd file orga_assgiment_Q2_v1.msim.vcd -direction
$end
$date
	Fri May 17 20:15:53 2024
$end
$version
	ModelSim Version 10.1d
$end
$timescale
	1ps
$end
$scope module logic_circuit_vlg_vec_tst $end
$var reg 8 ! A [7:0] $end
$var reg 8 " B [7:0] $end
$var reg 2 # S [1:0] $end
$var wire 1 $ E [7] $end
$var wire 1 % E [6] $end
$var wire 1 & E [5] $end
$var wire 1 ' E [4] $end
$var wire 1 ( E [3] $end
$var wire 1 ) E [2] $end
$var wire 1 * E [1] $end
$var wire 1 + E [0] $end
$var wire 1 , sampler $end
$scope module i1 $end
$var wire 1 - gnd $end
$var wire 1 . vcc $end
$var wire 1 / unknown $end
$var tri1 1 0 devclrn $end
$var tri1 1 1 devpor $end
$var tri1 1 2 devoe $end
$var wire 1 3 E[0]~output_o $end
$var wire 1 4 E[1]~output_o $end
$var wire 1 5 E[2]~output_o $end
$var wire 1 6 E[3]~output_o $end
$var wire 1 7 E[4]~output_o $end
$var wire 1 8 E[5]~output_o $end
$var wire 1 9 E[6]~output_o $end
$var wire 1 : E[7]~output_o $end
$var wire 1 ; S[0]~input_o $end
$var wire 1 < A[0]~input_o $end
$var wire 1 = S[1]~input_o $end
$var wire 1 > B[0]~input_o $end
$var wire 1 ? mx0|o1~0_combout $end
$var wire 1 @ B[1]~input_o $end
$var wire 1 A A[1]~input_o $end
$var wire 1 B mx1|o1~0_combout $end
$var wire 1 C A[2]~input_o $end
$var wire 1 D B[2]~input_o $end
$var wire 1 E mx2|o1~0_combout $end
$var wire 1 F B[3]~input_o $end
$var wire 1 G A[3]~input_o $end
$var wire 1 H mx3|o1~0_combout $end
$var wire 1 I A[4]~input_o $end
$var wire 1 J B[4]~input_o $end
$var wire 1 K mx4|o1~0_combout $end
$var wire 1 L A[5]~input_o $end
$var wire 1 M B[5]~input_o $end
$var wire 1 N mx5|o1~0_combout $end
$var wire 1 O B[6]~input_o $end
$var wire 1 P A[6]~input_o $end
$var wire 1 Q mx6|o1~0_combout $end
$var wire 1 R B[7]~input_o $end
$var wire 1 S A[7]~input_o $end
$var wire 1 T mx7|o1~0_combout $end
$upscope $end
$upscope $end
$enddefinitions $end
#0
$dumpvars
b1110000 !
b11100101 "
b0 #
0+
0*
0)
0(
0'
1&
1%
0$
x,
0-
1.
x/
10
11
12
03
04
05
06
07
18
19
0:
0;
0<
0=
1>
0?
0@
0A
0B
0C
1D
0E
0F
0G
0H
1I
0J
0K
1L
1M
1N
1O
1P
1Q
1R
0S
0T
$end
#20000
b11110000 !
b11100000 !
b11100010 !
b10100101 "
b10110101 "
b10111101 "
b10111001 "
0D
1F
1J
0O
1A
0I
1S
0,
0Q
1T
09
1:
0%
1$
#40000
b11000010 !
b11001010 !
b11001011 !
b111001 "
b11001 "
b1 #
b1001011 !
b1011011 !
b1011001 "
b1001001 "
b1000001 "
1;
0F
0J
0M
1O
0R
1<
1G
1I
0L
0S
1,
0T
1Q
0N
1K
1H
1B
1?
0:
19
08
17
16
14
13
0$
1%
0&
1'
1(
1*
1+
#60000
b11011 !
b11111 !
b1000000 "
b10111 !
b1100000 "
b10010111 !
b100000 "
b110000 "
b111000 "
0>
1F
1J
1M
0O
1C
0G
0P
1S
0,
1N
0Q
1E
1T
18
09
15
1:
1&
0%
1)
1$
#80000
b111010 "
b11 #
b10010101 !
b111110 "
b10111110 "
b10 #
b10101 !
b11111110 "
b11110110 "
0A
0S
0;
1=
1@
1D
0F
1O
1R
1,
1Q
0K
0H
0E
19
07
06
05
1%
0'
0(
0)
#100000
b1010101 !
b1010001 !
b1011001 !
b11100110 "
b11100100 "
b1011011 !
b11101100 "
0@
1F
0J
1A
0C
1G
1P
0,
1K
1E
0Q
17
15
09
1'
1)
0%
#120000
b1011010 !
b1001010 !
b11101101 "
b11001101 "
b1001101 "
b11 #
b11001010 !
b1101 "
b11101 "
b11111 "
b10111 "
1;
1>
1@
0F
1J
0M
0O
0R
0<
0I
1S
1,
0T
0B
0:
04
0$
0*
#140000
b11101010 !
b11100010 !
b11100000 !
b11110000 !
b10110 "
b110110 "
b1110110 "
b1110100 "
0>
0@
1M
1O
0A
0G
1I
1L
0,
1B
0N
1H
0K
14
08
16
07
1*
0&
1(
0'
#160000
b1 #
b1110000 "
b11110000 "
b0 #
b11111000 "
b11111000 !
b11111010 !
b11011000 "
b11011010 "
1A
1G
1@
0D
1F
0M
1R
0;
0=
1,
0E
1T
1Q
1K
0?
05
1:
19
17
03
0)
1$
1%
1'
0+
#180000
b10111010 !
b11001010 "
b10011010 !
b1001010 "
b1000010 "
0F
0J
0R
0L
0P
0,
0H
0K
0T
0Q
06
07
0:
09
0(
0'
0$
0%
#200000
b10011011 !
b11011 !
b1000110 "
b1 #
b11001 !
b1000100 "
b1011001 !
b11000100 "
1;
0@
1D
1R
1<
0A
1P
0S
1,
1T
1Q
1K
1H
1E
0B
1?
1:
19
17
16
15
04
13
1$
1%
1'
1(
1)
0*
1+
#220000
b11000101 "
b11100101 "
b11101101 "
b11011001 !
b11101001 "
b11101011 "
b10011001 !
b1101011 "
0P
1S
1>
1@
0D
1F
1M
0R
0,
1B
0E
1N
14
05
18
1*
0)
1&
#240000
b10001001 !
b101011 "
b11 #
b111011 "
b10001000 !
b10 #
b111010 "
b11010 "
b1000 !
b11110 "
0;
1=
0>
1D
1J
0M
0O
0<
0I
0S
1,
0T
0Q
0N
0H
1E
0?
0:
09
08
06
15
03
0$
0%
0&
0(
1)
0+
#260000
b1100 !
b100 !
b11100 "
b101 !
b111100 "
0@
1M
1<
1C
0G
0,
0B
1N
1?
0E
1H
04
18
13
05
16
0*
1&
1+
0)
1(
#280000
b100101 !
b100111 !
b110111 !
b101100 "
b11 #
b101101 "
b101001 "
b110011 !
b111011 !
b101011 "
b1011 "
1;
1>
1@
0D
0J
0M
1A
0C
1G
1I
1L
1,
1T
1Q
0N
0K
0H
1E
0?
1:
19
08
07
06
15
03
1$
1%
0&
0'
0(
1)
0+
#300000
b11 "
b10000011 "
b111010 !
b111000 !
b101000 !
b10010011 "
b10010010 "
b101100 !
0<
0A
1C
0I
0>
0F
1J
1R
0,
1?
1B
0E
1K
13
14
05
17
1+
1*
0)
1'
#320000
b1101100 !
b11010010 "
b1 #
b11101100 !
b0 #
b11100100 !
b11010000 "
b11110000 "
b11111000 "
b11100101 !
b11100111 !
b11110111 !
b11110011 !
0;
0=
0@
1F
1M
1O
1<
1A
0C
0G
1I
1P
1S
1,
1N
0B
0?
18
04
03
1&
0*
0+
#340000
b11010011 !
b1111000 "
b1101000 "
b1101001 "
b1010011 !
b1010010 !
b1010000 !
1>
0J
0R
0<
0A
0L
0S
0,
0K
0T
0N
07
0:
08
0'
0$
0&
#360000
b101001 "
b1 #
b1001 "
b10001001 "
b11010000 !
b11010001 !
b11010011 !
1<
1A
1S
1;
0M
0O
1R
1,
1?
1B
1T
1K
1H
13
14
1:
17
16
1+
1*
1$
1'
1(
#380000
b10010011 !
b10011011 !
b10001011 "
b10000011 "
b10011111 !
b10111111 !
b10010011 "
b10010010 "
b11010010 "
b11110010 "
0>
1@
0F
1J
1M
1O
1C
1G
1L
0P
0,
1N
1E
18
15
1&
1)
#400000
b11110110 "
b11 #
b10101111 !
b10 #
b11101111 !
b11110100 "
b11111100 "
b11111101 "
b10111101 "
b10011101 "
0I
1P
0;
1=
1>
0@
1D
1F
0M
0O
1,
0T
0H
0E
0?
0:
06
05
03
0$
0(
0)
0+
#420000
b1101111 !
b1101110 !
b1101100 !
b1100100 !
b1000100 !
b10011001 "
b1010100 !
b10011011 "
b10011010 "
b11011010 "
b11111010 "
0>
1@
0D
1M
1O
0<
0A
0G
1I
0L
0S
0,
1E
0Q
1H
0K
1T
15
09
16
07
1:
1)
0%
1(
0'
1$
#440000
b11 #
b11010100 !
b11010101 !
b11111110 "
b11000101 !
b11111111 "
b11011111 "
1>
1D
0M
1<
0I
1S
1;
1,
0E
1K
0T
05
17
0:
0)
1'
0$
#460000
b1011111 "
b10000101 !
b10001101 !
b1101 !
b1100 !
b1011011 "
b1111011 "
0<
1G
0P
0S
0D
1M
0R
0,
1?
0H
1Q
1T
13
06
19
1:
1+
0(
1%
1$
#480000
b1000 !
b1 #
b1110011 "
b1110001 "
b110001 "
b0 #
b11000 !
b110101 "
0@
1D
0F
0O
0;
0=
0C
1I
1,
0B
0Q
0T
0N
0?
04
09
0:
08
03
0*
0%
0$
0&
0+
#500000
b11010 !
b10110101 "
b1011010 !
b1010010 !
b1010011 !
b10110111 "
b11110111 "
b1000011 !
b11110011 "
1@
0D
1O
1R
1<
1A
0G
0I
1P
0,
1B
1Q
1?
0K
14
19
13
07
1*
1%
1+
0'
#520000
b11100011 "
b11100010 "
b11000011 !
b11000111 !
b1 #
b1100010 "
b10000111 !
b1100000 "
b100000 "
b10010111 !
b100100 "
1;
1C
1I
0P
1S
0>
0@
1D
0J
0O
0R
1,
1T
0Q
1N
1K
1E
1:
09
18
17
15
1$
0%
1&
1'
1)
#540000
b101100 "
b10010101 !
b10010100 !
b101101 "
b10100 !
b10000 !
b1010000 !
b101001 "
0<
0A
0C
1P
0S
1>
0D
1F
0,
0B
0E
1Q
0T
1H
04
05
19
0:
16
0*
0)
1%
0$
1(
#560000
b1110000 !
b1001 "
b11 #
b11001 "
b10 #
b1011001 "
b1100000 !
b1100010 !
b1100011 !
b11100011 !
b11100111 !
b10100111 !
b1011101 "
0;
1=
1D
1J
0M
1O
1<
1A
1C
0I
1L
0P
1S
1,
1T
1B
0?
1:
14
03
1$
1*
0+
#580000
b10101111 !
b11011101 "
b11011100 "
b11111100 "
b10111100 "
b10101110 !
b101110 !
b101010 !
b10111000 "
0>
0D
1M
0O
1R
0<
0C
1G
0S
0,
0N
0Q
0H
08
09
06
0&
0%
0(
#600000
b10111010 "
b11 #
b111010 !
b111000 !
b1111000 !
b1110000 !
b111010 "
b111011 "
b11011 "
b11110000 !
0A
0G
1I
1P
1S
1;
1>
1@
0M
0R
1,
1H
0K
0T
1E
1?
16
07
0:
15
13
1(
0'
0$
1)
1+
#620000
b11010000 !
b1011 "
b1001011 "
b1001111 "
b1001101 "
b11010010 !
b10010010 !
b11001101 "
b11101101 "
0@
1D
0J
1M
1O
1R
1A
0L
0P
0,
0B
1N
1Q
04
18
19
0*
1&
1%
#640000
b1 #
b10010110 !
b0 #
b10000110 !
b11101100 "
b110 !
b100110 !
b11111100 "
b11011100 "
0>
1J
0M
1C
0I
1L
0S
0;
0=
1,
0?
0N
0Q
0H
03
08
09
06
0+
0&
0%
0(
#660000
b10011100 "
b10011101 "
b10100110 !
b10000110 !
b10001101 "
b10101101 "
0L
1S
1>
0J
1M
0O
0,
1T
1:
1$
#680000
b10100101 "
b10000111 !
b10001111 !
b10001101 !
b11001101 !
b11001001 !
b1 #
b11100101 "
b1001001 !
b1101001 !
1;
1<
0A
0C
1G
1L
1P
0S
0F
1O
1,
1Q
1N
1H
1?
19
18
16
13
1%
1&
1(
1+
#700000
b11110101 "
b11111101 "
b1101000 !
b1100000 !
b1100010 !
b1100110 !
b10111101 "
b11100110 !
b11000110 !
0<
1A
1C
0G
0L
1S
1F
1J
0O
0,
1B
1K
14
17
1*
1'
#720000
b10111001 "
b10111011 "
b111011 "
b11 #
b11010110 !
b10010110 !
b10 #
b110011 "
b10110 !
b110110 !
1I
1L
0P
0S
0;
1=
1@
0D
0F
0R
1,
0K
0N
0Q
0T
0H
0B
07
08
09
0:
06
04
0'
0&
0%
0$
0(
0*
#740000
b110010 "
b110111 !
b110101 !
b110001 !
b1110010 "
b1110000 "
b11110000 "
b100001 !
b11111000 "
b1 !
1<
0A
0C
0I
0L
0>
0@
1F
1O
1R
0,
0E
1K
1N
1H
1Q
1T
05
17
18
16
19
1:
0)
1'
1&
1(
1%
1$
#760000
b11 #
b10000001 !
b10000000 !
b11111010 "
b10010000 !
b11110010 "
1@
0F
0<
1I
1S
1;
1,
1B
0K
0T
1E
14
07
0:
15
1*
0'
0$
1)
#780000
b11010010 "
b10010010 !
b1010010 "
b10010 !
b1011010 "
1A
0S
1F
0M
0R
0,
0B
1T
04
1:
0*
1$
#800000
b11010 !
b1 #
b11110 !
b11010 "
b111110 !
b0 #
b111111 !
b11000 "
b101111 !
b101101 !
b10000 "
0@
0F
0O
0;
0=
1<
0A
1C
1G
0I
1L
1,
0H
0Q
0T
0N
0E
0?
06
09
0:
08
05
03
0(
0%
0$
0&
0)
0+
#820000
b110000 "
b10110000 "
b10101101 !
b10100101 !
b11110000 "
b10000101 !
b10000100 !
0<
0G
0L
1S
1M
1O
1R
0,
1T
1:
1$
#840000
b11100000 "
b11100100 "
b1 #
b11100110 "
b10000110 !
b10100110 "
1A
1;
1@
1D
0J
0O
1,
1B
1N
1E
14
18
15
1*
1&
1)
#860000
b10100111 "
b10101111 "
b110 !
b1110 !
b10111111 "
b10111011 "
b10111001 "
1G
0S
1>
0@
0D
1F
1J
0,
1H
1?
1K
16
13
17
1(
1+
1'
#880000
b11 #
b111001 "
b101110 !
b10 #
b111011 "
1L
1@
0R
0;
1=
1,
0N
0B
0T
0H
08
04
0:
06
0&
0*
0$
0(
#900000
b1101110 !
b11011 "
b1101100 !
b10011 "
b1100100 !
b11 "
b111 "
b10000111 "
b10000101 "
0@
1D
0F
0J
0M
1R
0A
0G
1P
0,
0E
0K
1N
1T
1Q
05
07
18
1:
19
0)
0'
1&
1$
1%
#920000
b1100000 !
b1110000 !
b1110001 !
b11000101 "
b11000100 "
b11110001 !
b11010001 !
b11 #
b10010001 !
b11100100 "
b11100000 "
1;
0>
0D
1M
1O
1<
0C
1I
0L
0P
1S
1,
0T
1H
1E
1B
0?
0:
16
15
14
03
0$
1(
1)
1*
0+
#940000
b10011001 !
b11110000 "
b11110010 "
b10001001 !
b10110010 "
b1001 !
b1001001 !
b10010010 "
1@
1J
0M
0O
1G
0I
1P
0S
0,
1K
0Q
0H
1T
17
09
06
1:
1'
0%
0(
1$
#960000
b1 #
b10011010 "
b10011011 "
b1101001 !
b0 #
b10011111 "
b1100001 !
b11100001 !
b10100001 !
0G
1L
0P
1S
1>
1D
1F
0;
0=
1,
0N
1?
0E
0K
0B
08
13
05
07
04
0&
1+
0)
0'
0*
#980000
b10100000 !
b10011101 "
b10111101 "
b10111100 "
b100000 !
b1100000 !
0>
0@
1M
0<
1P
0S
0,
0?
1N
0T
03
18
0:
0+
1&
0$
